<svg width="209" height="221" viewBox="0 0 209 221" fill="none" xmlns="http://www.w3.org/2000/svg">
<path d="M208.535 110.627C208.535 146.662 199.697 174.055 182.021 192.805C164.346 211.555 138.467 220.93 104.385 220.93C70.791 220.93 45.0098 211.506 27.041 192.658C9.16992 173.811 0.234375 146.369 0.234375 110.334C0.234375 74.6895 9.12109 47.4922 26.8945 28.7422C44.7656 9.89454 70.6934 0.470703 104.678 0.470703C138.76 0.470703 164.59 9.79687 182.168 28.4492C199.746 47.1016 208.535 74.4941 208.535 110.627ZM61.1719 110.627C61.1719 152.033 75.5762 172.736 104.385 172.736C119.033 172.736 129.873 167.707 136.904 157.648C144.033 147.59 147.598 131.916 147.598 110.627C147.598 89.2402 143.984 73.4687 136.758 63.3125C129.629 53.0586 118.936 47.9316 104.678 47.9316C75.6738 47.9316 61.1719 68.8301 61.1719 110.627Z" fill="#F5F5F5"/>
</svg>
