<svg width="112" height="100" viewBox="0 0 112 100" fill="none" xmlns="http://www.w3.org/2000/svg">
<path d="M93.4494 90.8638H17.6456V100H93.4494V90.8638Z" fill="#6BD698"/>
<path d="M105.872 8.50733C104.872 8.51363 103.895 8.81167 103.062 9.36489C102.229 9.91812 101.575 10.7025 101.181 11.6218C100.787 12.5412 100.67 13.5555 100.844 14.5405C101.018 15.5255 101.475 16.4382 102.16 17.1669L79.011 40.3163L58.3883 9.41811C59.3071 8.80693 60.0047 7.91629 60.378 6.87792C60.7513 5.83956 60.7805 4.70861 60.4612 3.65236C60.142 2.59612 59.4913 1.67067 58.6053 1.01291C57.7193 0.355147 56.6452 1.30713e-10 55.5418 1.30712e-10C54.4383 1.30713e-10 53.3642 0.355147 52.4783 1.01291C51.5923 1.67067 50.9416 2.59612 50.6223 3.65236C50.3031 4.70861 50.3323 5.83956 50.7056 6.87792C51.0789 7.91629 51.7765 8.80693 52.6952 9.41811L32.0697 40.3192L8.9232 17.1698C9.77548 16.2781 10.2815 15.1116 10.3504 13.8801C10.4192 12.6485 10.0462 11.4329 9.29852 10.4518C8.55087 9.47078 7.47765 8.78878 6.27196 8.52854C5.06627 8.26829 3.80728 8.44689 2.72154 9.0322C1.6358 9.61751 0.794594 10.5711 0.349293 11.7214C-0.0960077 12.8716 -0.116168 14.1431 0.292441 15.3069C0.70105 16.4707 1.5116 17.4505 2.57824 18.0699C3.64487 18.6893 4.89756 18.9078 6.1109 18.6859L17.7313 85.9128H93.3437L104.967 18.6859C105.675 18.8288 106.406 18.8208 107.111 18.6623C107.816 18.5037 108.48 18.1983 109.059 17.7659C109.638 17.3334 110.119 16.7837 110.471 16.1527C110.824 15.5216 111.039 14.8234 111.103 14.1035C111.167 13.3837 111.078 12.6584 110.843 11.9751C110.608 11.2918 110.231 10.6658 109.737 10.138C109.244 9.61011 108.644 9.19231 107.978 8.91183C107.312 8.63135 106.595 8.49449 105.872 8.51018V8.50733ZM85.652 76.7735H25.423L19.1132 40.2735L33.4773 54.6548L55.5361 21.6067L77.5891 54.6548L91.9618 40.2735L85.652 76.7735Z" fill="#6BD698"/>
</svg>
